IS415-Wan Shen - Take-home Exercise 2
…
Now we implement the code which calculates the Local Gi* statistic for each observation in the dataset and adds it as a new variable local_Gi, allowing for the identification of spatial clusters and outliers.

HCSA <- wm_idw %>% 
  mutate(local_Gi = local_gstar_perm(
    count, nb, wt, nsim = 99),
         .before = 1) %>%
  unnest(local_Gi)
HCSA

Simple feature collection with 258 features and 21 fields
Geometry type: POLYGON
Dimension:     XY
Bounding box:  xmin: 120.0627 ymin: 22.89401 xmax: 120.2925 ymax: 23.09144
Geodetic CRS:  TWD97
# A tibble: 258 × 22
   gi_star    e_gi   var_gi p_value   p_sim p_folded_sim skewness kurtosis nb   
     <dbl>   <dbl>    <dbl>   <dbl>   <dbl>        <dbl>    <dbl>    <dbl> <nb> 
 1 -1.95   0.00286  2.33e-6 -1.69   0.0919          0.02     0.01   0.844  <int>
 2 -1.64   0.00356  1.70e-6 -1.64   0.101           0.08     0.04   0.147  <int>
 3 -1.43   0.00431  1.37e-6 -1.86   0.0627          0.08     0.04   0.207  <int>
 4 -0.241  0.00367  1.83e-6 -0.0947 0.925           0.96     0.48   0.424  <int>
 5 -2.23   0.00329  2.58e-6 -1.91   0.0559          0.02     0.01   0.757  <int>
 6 -2.86   0.00335  1.41e-6 -2.67   0.00767         0.02     0.01   0.325  <int>
 7 -0.850  0.00324  2.05e-6 -0.529  0.597           0.64     0.32   0.617  <int>
 8  0.0894 0.00392  1.32e-6  0.0484 0.961           0.86     0.43   0.432  <int>
 9  1.85   0.00411  1.66e-6  1.97   0.0493          0.04     0.02   0.0197 <int>
10 -0.970  0.00381  1.69e-6 -0.978  0.328           0.36     0.18   0.194  <int>
# ℹ 248 more rows
# ℹ 13 more variables: wts <list>, VILLCODE <chr>, COUNTYNAME <chr>,
#   TOWNNAME <chr>, VILLNAME <chr>, VILLENG <chr>, COUNTYID <chr>,
#   COUNTYCODE <chr>, TOWNID <chr>, TOWNCODE <chr>, NOTE <chr>, count <dbl>,
#   geometry <POLYGON [°]>
…
