IS415-Wan Shen - Take-home Exercise 1
…
Note

Preparing the following geospatial data layer in sf tibble data.frames.

Road layer within Singapore excluding outer islands.

tibble1 <- as_tibble(road_df)
tibble1

# A tibble: 317,780 × 11
   osm_id   code fclass      name      ref   oneway maxspeed layer bridge tunnel
   <chr>   <int> <chr>       <chr>     <chr> <chr>     <int> <dbl> <chr>  <chr> 
 1 4386520  5113 primary     Orchard … <NA>  F            50     0 F      F     
 2 4578273  5114 secondary   Jalan Bu… <NA>  F             0     0 F      F     
 3 4579495  5122 residential Jalan Na… <NA>  B             0     0 F      F     
 4 4579533  5122 residential Persiara… <NA>  B             0     0 F      F     
 5 4579534  5122 residential Jalan Ce… <NA>  B             0     0 F      F     
 6 4579536  5122 residential Changkat… <NA>  F             0     0 F      F     
 7 4585475  5122 residential Jalan Ha… <NA>  F             0     0 F      F     
 8 4585480  5122 residential Jalan Be… <NA>  F             0     0 F      F     
 9 4585482  5122 residential Jalan Be… <NA>  F             0     0 F      F     
10 4661703  5122 residential Jalan 1/… <NA>  B             0     0 F      F     
# ℹ 317,770 more rows
# ℹ 1 more variable: geometry <LINESTRING [°]>

Singapore boundary layer excluding outer islands

tibble2 <- as_tibble(island_df)
tibble2

# A tibble: 332 × 3
   Name   Description                                                   geometry
   <chr>  <chr>                                               <MULTIPOLYGON [°]>
 1 kml_1  "<center><table><tr><th colspan='2' align='… Z (((103.8145 1.282387 0…
 2 kml_2  "<center><table><tr><th colspan='2' align='… Z (((103.8221 1.280494 0…
 3 kml_3  "<center><table><tr><th colspan='2' align='… Z (((103.8438 1.285079 0…
 4 kml_4  "<center><table><tr><th colspan='2' align='… Z (((103.8496 1.284119 0…
 5 kml_5  "<center><table><tr><th colspan='2' align='… Z (((103.8525 1.286166 0…
 6 kml_6  "<center><table><tr><th colspan='2' align='… Z (((103.8486 1.282317 0…
 7 kml_7  "<center><table><tr><th colspan='2' align='… Z (((103.8311 1.287163 0…
 8 kml_8  "<center><table><tr><th colspan='2' align='… Z (((103.8589 1.278739 0…
 9 kml_9  "<center><table><tr><th colspan='2' align='… Z (((103.8283 1.287235 0…
10 kml_10 "<center><table><tr><th colspan='2' align='… Z (((103.8552 1.28322 0,…
# ℹ 322 more rows
…
grab0_as

Simple feature collection with 3034553 features and 7 fields
Geometry type: POINT
Dimension:     XY
Bounding box:  xmin: 3638.685 ymin: 24913.65 xmax: 50040.9 ymax: 49685.08
Projected CRS: SVY21 / Singapore TM
# A tibble: 3,034,553 × 8
   trj_id driving_mode osname  pingtimestamp       speed bearing accuracy
 * <chr>  <chr>        <chr>   <dttm>              <dbl>   <int>    <dbl>
 1 70014  car          android 2019-04-11 00:40:36 18.9      248     3.9 
 2 73573  car          android 2019-04-18 10:17:03 17.7       44     4   
 3 75567  car          android 2019-04-13 07:37:06 14.0       34     3.9 
 4 1410   car          android 2019-04-20 03:41:33 13.0      181     4   
 5 4354   car          android 2019-04-18 10:48:17 14.8       93     3.9 
 6 32630  car          android 2019-04-16 06:14:18 23.2       73     3.9 
 7 64631  car          android 2019-04-09 00:15:55  0         82     3   
 8 76484  car          android 2019-04-09 04:18:52  3.98     321     3.65
 9 65747  car          ios     2019-04-10 12:13:38  4.68     324    50   
10 60478  car          ios     2019-04-18 13:13:09 16.5       31    16   
# ℹ 3,034,543 more rows
# ℹ 1 more variable: geometry <POINT [m]>
…
